{
  "search": true,
  "docs": [
    {
      "whatsappId": null,
      "province": null,
      "district": null,
      "ward": null,
      "company": null,
      "website": null,
      "_id": "68d9da3afc455a5103bb36e3",
      "user": {
        "_id": "68c67213bb5b46731573988e",
        "group": "68c67ae7bdbee497f19c14ba",
        "email": "utlanpk@gmail.com",
        "name": "PHAN THỊ ÚT LAN",
        "lastOnlineTime": 1759127659905,
        "ext": "1018",
        "id": "68c67213bb5b46731573988e"
      },
      "users": [],
      "facebookId": null,
      "zaloId": null,
      "zaloUserId": null,
      "telegramId": null,
      "shopeeId": null,
      "instagramId": null,
      "tiktokId": null,
      "livechatId": null,
      "facebookComment": false,
      "facebookMessage": "false",
      "gender": "unknown",
      "address": "Tuyên Quang",
      "additionPhones": [],
      "additionEmails": [],
      "source": null,
      "ref": null,
      "lastNumber": 23425,
      "lastCallTime": 1759127943000,
      "lastCallSuccessTime": 0,
      "lastSendSMSTime": 0,
      "lastSendZNSTime": 0,
      "lastSendEmailTime": 0,
      "anonymous": false,
      "firstMessageReceiveTime": 0,
      "lastMessageReceiveTime": 0,
      "lastMessageReplyTime": 0,
      "notSeenCount": 0,
      "tags": [],
      "suggest": [],
      "title": null,
      "department": null,
      "replied": true,
      "assignedTime": 1759107642719,
      "lastNoteTime": 0,
      "blockInbox": false,
      "isGroup": false,
      "invoiceEmails": null,
      "createTime": 1759107642719,
      "updateTime": 1759127995485,
      "contacts": [],
      "client": "68c270f12c49200d2ed82a29",
      "name": "Thanh Long Ngô",
      "desc": null,
      "phone": "0394826826",
      "email": null,
      "passport": null,
      "nationalId": null,
      "code": "KH23425",
      "__v": 2,
      "customFields": [
        {
          "key": "tinh-trang-kh",
          "val": [
            "Không nghe máy"
          ],
          "_id": "68da29bbf3cb5ff9bdced2d3"
        }
      ],
      "dob": 0,
      "points": 0,
      "pointsUsed": 0,
      "id": "68d9da3afc455a5103bb36e3"
    },
    {
      "whatsappId": null,
      "province": null,
      "district": null,
      "ward": null,
      "company": null,
      "website": null,
      "_id": "68d9dba604072ea2b379d423",
      "user": {
        "_id": "68c67214bb5b4673157398c9",
        "group": "68c67ae7bdbee497f19c14ba",
        "email": "hongcopk@gmail.com",
        "name": "TRẦN HỒNG CƠ",
        "lastOnlineTime": 1759127900875,
        "ext": "1022",
        "id": "68c67214bb5b4673157398c9"
      },
      "users": [],
      "facebookId": null,
      "zaloId": null,
      "zaloUserId": null,
      "telegramId": null,
      "shopeeId": null,
      "instagramId": null,
      "tiktokId": null,
      "livechatId": null,
      "facebookComment": false,
      "facebookMessage": "false",
      "gender": "unknown",
      "address": "Hải Phòng",
      "additionPhones": [],
      "additionEmails": [],
      "source": null,
      "ref": null,
      "lastNumber": 24491,
      "lastCallTime": 1759127883000,
      "lastCallSuccessTime": 0,
      "lastSendSMSTime": 0,
      "lastSendZNSTime": 0,
      "lastSendEmailTime": 0,
      "anonymous": false,
      "firstMessageReceiveTime": 0,
      "lastMessageReceiveTime": 0,
      "lastMessageReplyTime": 0,
      "notSeenCount": 0,
      "tags": [],
      "suggest": [],
      "title": null,
      "department": null,
      "replied": true,
      "assignedTime": 1759108006463,
      "lastNoteTime": 0,
      "blockInbox": false,
      "isGroup": false,
      "invoiceEmails": null,
      "createTime": 1759108006462,
      "updateTime": 1759127985645,
      "contacts": [],
      "client": "68c270f12c49200d2ed82a29",
      "name": "Thị Chi Lê",
      "desc": null,
      "phone": "0382485135",
      "email": null,
      "passport": null,
      "nationalId": null,
      "code": "KH24491",
      "__v": 6,
      "customFields": [
        {
          "key": "tinh-trang-kh",
          "val": [
            "Không nghe máy 2"
          ],
          "_id": "68da29b170a310d19f851132"
        }
      ],
      "dob": 0,
      "points": 0,
      "pointsUsed": 0,
      "id": "68d9dba604072ea2b379d423"
    },
    {
      "whatsappId": null,
      "province": null,
      "district": null,
      "ward": null,
      "company": null,
      "website": null,
      "_id": "68d9db93793816b814fd1815",
      "user": {
        "_id": "68c67213bb5b467315739896",
        "group": "68c67ae7bdbee497f19c14ba",
        "email": "thuthaopk@gmail.com",
        "name": "ĐÀO THỊ THU THẢO",
        "lastOnlineTime": 1759127537631,
        "ext": "1019",
        "id": "68c67213bb5b467315739896"
      },
      "users": [],
      "facebookId": null,
      "zaloId": null,
      "zaloUserId": null,
      "telegramId": null,
      "shopeeId": null,
      "instagramId": null,
      "tiktokId": null,
      "livechatId": null,
      "facebookComment": false,
      "facebookMessage": "false",
      "gender": "unknown",
      "address": "Hà Tĩnh",
      "additionPhones": [],
      "additionEmails": [],
      "source": null,
      "ref": null,
      "lastNumber": 24434,
      "lastCallTime": 1759127905000,
      "lastCallSuccessTime": 1759127905000,
      "lastSendSMSTime": 0,
      "lastSendZNSTime": 0,
      "lastSendEmailTime": 0,
      "anonymous": false,
      "firstMessageReceiveTime": 0,
      "lastMessageReceiveTime": 0,
      "lastMessageReplyTime": 0,
      "notSeenCount": 0,
      "tags": [],
      "suggest": [],
      "title": null,
      "department": null,
      "replied": true,
      "assignedTime": 1759107987626,
      "lastNoteTime": 0,
      "blockInbox": false,
      "isGroup": false,
      "invoiceEmails": null,
      "createTime": 1759107987625,
      "updateTime": 1759127981547,
      "contacts": [],
      "client": "68c270f12c49200d2ed82a29",
      "name": "Vương Nguyễn Trọng Trần",
      "desc": null,
      "phone": "0869608537",
      "email": null,
      "passport": null,
      "nationalId": null,
      "code": "KH24434",
      "__v": 3,
      "customFields": [
        {
          "key": "tinh-trang-kh",
          "val": [
            "Kết bạn zalo"
          ],
          "_id": "68da29adfc455a5103d0f443"
        }
      ],
      "dob": 0,
      "points": 0,
      "pointsUsed": 0,
      "id": "68d9db93793816b814fd1815"
    },
    {
      "whatsappId": null,
      "province": null,
      "district": null,
      "ward": null,
      "company": null,
      "website": null,
      "_id": "68d9dbd3f3cb5ff9bdb950f0",
      "user": {
        "_id": "68d10667c88d49d659aee69a",
        "group": "68c67ae7bdbee497f19c14ba",
        "lastOnlineTime": 1759127834181,
        "email": "thenghiaha35@gmail.com",
        "name": "HÀ NGUYỄN THẾ NGHĨA",
        "ext": "1025",
        "id": "68d10667c88d49d659aee69a"
      },
      "users": [],
      "facebookId": null,
      "zaloId": null,
      "zaloUserId": null,
      "telegramId": null,
      "shopeeId": null,
      "instagramId": null,
      "tiktokId": null,
      "livechatId": null,
      "facebookComment": false,
      "facebookMessage": "false",
      "gender": "unknown",
      "address": "Hà Nội",
      "additionPhones": [],
      "additionEmails": [],
      "source": null,
      "ref": null,
      "lastNumber": 24628,
      "lastCallTime": 1759127818000,
      "lastCallSuccessTime": 0,
      "lastSendSMSTime": 0,
      "lastSendZNSTime": 0,
      "lastSendEmailTime": 0,
      "anonymous": false,
      "firstMessageReceiveTime": 0,
      "lastMessageReceiveTime": 0,
      "lastMessageReplyTime": 0,
      "notSeenCount": 0,
      "tags": [],
      "suggest": [],
      "title": null,
      "department": null,
      "replied": true,
      "assignedTime": 1759108051005,
      "lastNoteTime": 0,
      "blockInbox": false,
      "isGroup": false,
      "invoiceEmails": null,
      "createTime": 1759108051005,
      "updateTime": 1759127979727,
      "contacts": [],
      "client": "68c270f12c49200d2ed82a29",
      "name": "Minh Đặng Hoàng",
      "desc": null,
      "phone": "0368613866",
      "email": null,
      "passport": null,
      "nationalId": null,
      "code": "KH24628",
      "__v": 2,
      "customFields": [
        {
          "key": "tinh-trang-kh",
          "val": [
            "Không nghe máy"
          ],
          "_id": "68da29ab503a6b9fd83d12c1"
        }
      ],
      "dob": 0,
      "points": 0,
      "pointsUsed": 0,
      "id": "68d9dbd3f3cb5ff9bdb950f0"
    },
    {
      "whatsappId": null,
      "province": null,
      "district": null,
      "ward": null,
      "company": null,
      "website": null,
      "_id": "68d9dbc782afe064b65c2023",
      "user": {
        "_id": "68c67214bb5b4673157398c1",
        "group": "68c67ae7bdbee497f19c14ba",
        "email": "phuongthuypk@gmail.com",
        "name": "PHAN THỊ PHƯƠNG THUÝ",
        "lastOnlineTime": 1759127802032,
        "ext": "1021",
        "id": "68c67214bb5b4673157398c1"
      },
      "users": [],
      "facebookId": null,
      "zaloId": null,
      "zaloUserId": null,
      "telegramId": null,
      "shopeeId": null,
      "instagramId": null,
      "tiktokId": null,
      "livechatId": null,
      "facebookComment": false,
      "facebookMessage": "false",
      "gender": "unknown",
      "address": "Tây Ninh",
      "additionPhones": [],
      "additionEmails": [],
      "source": null,
      "ref": null,
      "lastNumber": 24592,
      "lastCallTime": 1759127921000,
      "lastCallSuccessTime": 0,
      "lastSendSMSTime": 0,
      "lastSendZNSTime": 0,
      "lastSendEmailTime": 0,
      "anonymous": false,
      "firstMessageReceiveTime": 0,
      "lastMessageReceiveTime": 0,
      "lastMessageReplyTime": 0,
      "notSeenCount": 0,
      "tags": [],
      "suggest": [],
      "title": null,
      "department": null,
      "replied": true,
      "assignedTime": 1759108039376,
      "lastNoteTime": 0,
      "blockInbox": false,
      "isGroup": false,
      "invoiceEmails": null,
      "createTime": 1759108039376,
      "updateTime": 1759127977614,
      "contacts": [],
      "client": "68c270f12c49200d2ed82a29",
      "name": "Lộc Lê Thị",
      "desc": null,
      "phone": "0833338069",
      "email": null,
      "passport": null,
      "nationalId": null,
      "code": "KH24592",
      "__v": 3,
      "customFields": [
        {
          "key": "tinh-trang-kh",
          "val": [
            "Không nghe máy 2"
          ],
          "_id": "68da29a982afe064b6720499"
        }
      ],
      "dob": 0,
      "points": 0,
      "pointsUsed": 0,
      "id": "68d9dbc782afe064b65c2023"
    }
  ],
  "hasNextPage": true,
  "hasPrevPage": false,
  "nextPage": "11",
  "page": "1",
  "limit": "5",
  "pagingCounter": 1,
  "prevPage": null,
  "totalDocs": 13607,
  "totalPages": 2722
}